<?xml version="1.0" encoding="UTF-8"?>
<!DOCTYPE svg PUBLIC "-//W3C//DTD SVG 1.1//EN" "http://www.w3.org/Graphics/SVG/1.1/DTD/svg11.dtd">
<!-- Creator: CorelDRAW -->
<svg xmlns="http://www.w3.org/2000/svg" xml:space="preserve" width="7.48488in" height="2.2666in" style="shape-rendering:geometricPrecision; text-rendering:geometricPrecision; image-rendering:optimizeQuality; fill-rule:evenodd; clip-rule:evenodd"
viewBox="0 0 7.48488 2.2666"
 xmlns:xlink="http://www.w3.org/1999/xlink">
 <defs>
  <style type="text/css">
   <![CDATA[
    .fil1 {fill:#0093DD}
    .fil0 {fill:#0093DD;fill-rule:nonzero}
   ]]>
  </style>
 </defs>
 <g id="Layer_x0020_1">
  <metadata id="CorelCorpID_0Corel-Layer"/>
  <g id="_152241680">
   <polygon id="_152242568" class="fil0" points="-0,0.8625 0.20878,0.8625 0.310323,1.2715 0.415209,0.8625 0.617614,0.8625 0.395386,1.50806 0.217693,1.50806 "/>
   <path id="_152241800" class="fil0" d="M0.683004 0.643035l0.200559 0 0 0.163539 -0.200559 0 0 -0.163539zm0 0.238461l0.200559 0 0 0.626563 -0.200559 0 0 -0.626563z"/>
   <path id="_152242184" class="fil0" d="M1.01501 0.868965l0.197654 0 0 0.103945c0.0295315,-0.0425276 0.0594173,-0.0727244 0.0896654,-0.0910079 0.0302362,-0.0182835 0.0670709,-0.0275236 0.11048,-0.0275236 0.0587008,0 0.104602,0.0203346 0.137874,0.0605984 0.0330906,0.0402638 0.0496339,0.102508 0.0496339,0.18674l0 0.406343 -0.213126 0 0 -0.351492c0,-0.0400591 -0.00640551,-0.0684094 -0.0192165,-0.0850551 -0.0129882,-0.0168425 -0.0309606,-0.0250551 -0.0542598,-0.0250551 -0.0256181,0 -0.0466181,0.0112992 -0.0624409,0.033685 -0.0160157,0.0223937 -0.0240157,0.0628661 -0.0240157,0.120996l0 0.306921 -0.212248 0 0 -0.639094z"/>
   <path id="_152242664" class="fil0" d="M1.86696 1.09411l-0.191465 -0.0236102c0.00722441,-0.0391496 0.0176535,-0.0700354 0.0312638,-0.0924646 0.0136142,-0.0224291 0.0331181,-0.0419094 0.0588425,-0.0584331 0.018315,-0.012 0.0437008,-0.021248 0.075811,-0.0277402 0.0321102,-0.0065 0.0669055,-0.00984252 0.104394,-0.00984252 0.0600118,0 0.108429,0.00393701 0.144736,0.0118071 0.0364803,0.00787008 0.0669094,0.0243937 0.0911142,0.0493819 0.0171457,0.017311 0.0305984,0.0417126 0.0405118,0.0733819 0.00975197,0.031878 0.0146299,0.0619764 0.0146299,0.0908976l0 0.270327c0,0.0287323 0.00167323,0.0513504 0.00470472,0.067685 0.00318898,0.0163268 0.00991339,0.037185 0.0205079,0.062563l-0.18811 0c-0.00756299,-0.0157402 -0.0124409,-0.0277402 -0.0147953,-0.0360039 -0.00235039,-0.00826772 -0.00453937,-0.021248 -0.00688583,-0.0389528 -0.0262283,0.0297008 -0.0524606,0.0507598 -0.0783465,0.0633465 -0.0354685,0.0169213 -0.0766575,0.0253858 -0.123555,0.0253858 -0.0623583,0 -0.109768,-0.0169213 -0.142213,-0.0507638 -0.0322717,-0.0336417 -0.0484173,-0.0753543 -0.0484173,-0.124937 0,-0.046626 0.0116024,-0.0847913 0.0349685,-0.114697 0.0233701,-0.0300984 0.0662362,-0.0523386 0.128929,-0.0668976 0.0753189,-0.0177047 0.124067,-0.0301024 0.146417,-0.0371772 0.0221969,-0.00708661 0.0459016,-0.0165315 0.0707874,-0.027937 0,-0.0289291 -0.00505118,-0.0489961 -0.0151378,-0.0605984 -0.0102559,-0.0114134 -0.0280748,-0.0173189 -0.0537874,-0.0173189 -0.0327795,0 -0.0573307,0.00629528 -0.0738031,0.0185 -0.0127756,0.0096378 -0.0231969,0.0277402 -0.0311024,0.0540984zm0.173831 0.123358c-0.0275748,0.0116102 -0.0563228,0.0218425 -0.0860787,0.0306969 -0.0406772,0.0125945 -0.0665709,0.0251772 -0.0773307,0.037374 -0.0112559,0.0127913 -0.0168071,0.0271535 -0.0168071,0.0432913 0,0.0184882 0.00555118,0.0334449 0.0164803,0.045252 0.0110866,0.0116024 0.0272323,0.0175079 0.0485827,0.0175079 0.0223504,0 0.0430315,-0.00629134 0.0623661,-0.0188858 0.0191614,-0.0127913 0.0327717,-0.0283346 0.0408465,-0.046437 0.00807087,-0.0182992 0.0119409,-0.0420984 0.0119409,-0.0712165l0 -0.0375827z"/>
   <path id="_152241728" class="fil0" d="M2.33219 1.716l0 -0.820406 0.199252 0 0 0.0878701c0.0276614,-0.0370551 0.0528386,-0.0620787 0.0758622,-0.0750709 0.0310669,-0.0175748 0.0653465,-0.0263583 0.103024,-0.0263583 0.0742598,0 0.131748,0.0305591 0.172461,0.0913031 0.0405197,0.0607441 0.0608701,0.136004 0.0608701,0.225591 0,0.098748 -0.0221339,0.174201 -0.0664055,0.22635 -0.0442795,0.0519528 -0.100335,0.0779331 -0.167819,0.0779331 -0.0328504,0 -0.0628425,-0.0059252 -0.0898031,-0.0177677 -0.0269646,-0.0120315 -0.0512362,-0.0297992 -0.0724843,-0.0532874l0 0.283843 -0.214957 0zm0.213524 -0.521657c0,0.0469882 0.00911417,0.0819409 0.0276811,0.104673 0.0183858,0.0227283 0.0417795,0.0341929 0.0699843,0.0341929 0.024815,0 0.0455197,-0.0108858 0.0623031,-0.0328504 0.0167756,-0.0217835 0.0251693,-0.0588386 0.0251693,-0.11098 0,-0.0481339 -0.00874803,-0.0834764 -0.0262362,-0.106016 -0.0173189,-0.0227323 -0.038748,-0.0339961 -0.0637362,-0.0339961 -0.0273189,0 -0.0499882,0.0114567 -0.0680197,0.034185 -0.0182126,0.0227323 -0.0271457,0.0597874 -0.0271457,0.110791z"/>
   <path id="_152242736" class="fil0" d="M3.03968 0.663051l0.200539 0 0 0.31898c0.0272402,-0.033878 0.0543071,-0.0580748 0.0812008,-0.0725906 0.0268937,-0.0147205 0.0588307,-0.0219803 0.0956535,-0.0219803 0.0544606,0 0.0973268,0.0199646 0.128764,0.059685 0.0312638,0.0399291 0.0469016,0.100819 0.0469016,0.183079l0 0.398823 -0.201386 0 0 -0.344984c0,-0.0393228 -0.00605118,-0.0671496 -0.0181535,-0.0834764 -0.0122756,-0.0165315 -0.0292559,-0.0245984 -0.0512717,-0.0245984 -0.0242126,0 -0.0440472,0.0110945 -0.0590118,0.0330669 -0.015126,0.0219803 -0.0226969,0.0617008 -0.0226969,0.118764l0 0.301228 -0.200539 0 0 -0.865996z"/>
   <path id="_152243168" class="fil0" d="M3.69169 1.21959c0,-0.0978622 0.0297362,-0.178795 0.0891969,-0.242177 0.0596693,-0.0635866 0.139945,-0.0953858 0.241228,-0.0953858 0.115783,0 0.203319,0.037374 0.262413,0.111902 0.0475748,0.0600827 0.0713661,0.134205 0.0713661,0.222154 0,0.098689 -0.0295512,0.179622 -0.0884646,0.242795 -0.0589094,0.0629685 -0.140496,0.0945591 -0.244756,0.0945591 -0.0929213,0 -0.168,-0.0262205 -0.225425,-0.0786654 -0.0704409,-0.0648307 -0.105559,-0.14989 -0.105559,-0.255181zm0.222083 -0.000622047c0,0.0574016 0.0104016,0.0997244 0.0314016,0.126972 0.0208189,0.0274606 0.0470197,0.0412953 0.0786142,0.0412953 0.0319685,0 0.0581732,-0.013626 0.0786142,-0.0406772 0.020626,-0.0270394 0.0308504,-0.070189 0.0308504,-0.130063 0,-0.0555394 -0.0104055,-0.0970354 -0.0310433,-0.124291 -0.0206181,-0.0270472 -0.0462598,-0.0406693 -0.0767402,-0.0406693 -0.0323425,0 -0.0591063,0.0138268 -0.0801063,0.0412913 -0.0209961,0.0276614 -0.0315906,0.0697756 -0.0315906,0.126142z"/>
   <path id="_152243288" class="fil0" d="M4.42134 0.904591l0.202008 0 0 0.102886c0.030189,-0.0420906 0.0607283,-0.0719843 0.0916378,-0.0900787 0.0309134,-0.0181024 0.0685472,-0.027248 0.112913,-0.027248 0.0599921,0 0.106902,0.0201299 0.140909,0.0599882 0.033815,0.0398504 0.0507283,0.101465 0.0507283,0.184827l0 0.402205 -0.217827 0 0 -0.347909c0,-0.0396496 -0.00653937,-0.0677165 -0.0196339,-0.0841811 -0.0132756,-0.0166772 -0.0316378,-0.0248071 -0.0554528,-0.0248071 -0.0261772,0 -0.0476417,0.0111811 -0.0638228,0.0333425 -0.0163583,0.0221693 -0.0245472,0.0622244 -0.0245472,0.119772l0 0.303783 -0.216913 0 0 -0.632579z"/>
   <path id="_152243360" class="fil0" d="M5.68735 1.28455l-0.401772 0c0.00352362,0.0377717 0.0122677,0.0657165 0.0260591,0.0842047 0.0193228,0.0265591 0.0447087,0.039748 0.075811,0.039748 0.0196614,0 0.0384961,-0.00570866 0.0561417,-0.0173189 0.0109291,-0.00727559 0.0225315,-0.0200669 0.0349685,-0.038563l0.197516 0.021248c-0.0302559,0.0615866 -0.066563,0.105654 -0.109264,0.132409 -0.0426929,0.0265669 -0.103886,0.0399449 -0.183732,0.0399449 -0.0692598,0 -0.123732,-0.0114134 -0.163571,-0.0342402 -0.0396693,-0.022815 -0.0726142,-0.0592165 -0.0986732,-0.108996 -0.0260591,-0.0497717 -0.0391693,-0.108209 -0.0391693,-0.175492 0,-0.095622 0.0262244,-0.173142 0.0785039,-0.232161 0.0524488,-0.0592165 0.124736,-0.0889291 0.21702,-0.0889291 0.0748031,0 0.133988,0.0133858 0.177185,0.0399409 0.043374,0.0263622 0.0764921,0.0649252 0.0990157,0.115094 0.022685,0.0503661 0.0339606,0.115886 0.0339606,0.196551l0 0.0265591zm-0.203748 -0.112346c-0.0040315,-0.0454409 -0.0144646,-0.0779055 -0.0312638,-0.0973858 -0.0169803,-0.0196693 -0.0391693,-0.0295039 -0.0667362,-0.0295039 -0.0319449,0 -0.0573228,0.0149449 -0.0764921,0.0444606 -0.0121024,0.0184882 -0.0198425,0.0458386 -0.0230236,0.0824291l0.197516 0z"/>
   <path id="_152243432" class="fil1" d="M5.33727 0.584543c-0.124228,-0.131059 -0.202906,-0.394689 0.0594764,-0.545209 0.202799,-0.0788898 0.35726,-0.0450118 0.441122,0.15365 0.171571,0.501744 0.409697,0.656764 0.594772,0.639378 0.277594,-0.00659449 0.409748,-0.140433 0.475819,-0.332079 0.00251575,-0.452224 0.332433,-0.40824 0.401472,-0.391559 0.237122,0.0825866 0.205374,0.414677 0.0693898,0.495642 -0.115654,0.114 -0.429563,0.00677559 -0.555122,0.208173 -0.10598,0.151417 -0.0753976,0.340827 -0.158606,0.414358 -0.103154,0.0693701 -0.204283,0.0830315 -0.302343,0.0713701 -0.277362,0.0775551 -0.0180394,0.269787 -0.203213,0.411386 -0.126972,0.0750787 -0.301748,0.00258661 -0.299858,-0.12887 0.00229921,-0.201748 0.143622,-0.229193 0.278276,-0.229803 0.0476654,-0.0248543 0.0743465,-0.0675709 0.0903071,-0.128161 0.0512717,-0.152331 -0.021248,-0.272398 -0.113331,-0.360717 -0.343874,-0.325496 -0.603264,-0.100559 -0.778161,-0.277559z"/>
   <path id="_152241608" class="fil0" d="M0.985957 2.1658l0.0727874 -0.347752 0.0429961 0 -0.045185 0.215453 0.125177 -0.119591 0.0565984 0 -0.107445 0.0939213 0.0650197 0.157969 -0.0469606 0 -0.0502835 -0.129307 -0.0523898 0.0452638 -0.0174055 0.0840433 -0.0429094 0zm0.242409 0l0.0726299 -0.347752 0.0429134 0 -0.0278543 0.133512c0.029878,-0.0289016 0.0589449,-0.0433976 0.087122,-0.0433976 0.0195945,0 0.035378,0.00510236 0.0472047,0.0152205 0.0125472,0.0105236 0.0187795,0.0255079 0.0187795,0.0447795 0,0.00842126 -0.00250787,0.0246969 -0.00761024,0.0489016l-0.0310906 0.148736 -0.042748 0 0.0318937 -0.152535c0.00462205,-0.0217835 0.00688976,-0.0357126 0.00688976,-0.0417047 0,-0.0187047 -0.0110945,-0.0280157 -0.0331969,-0.0280157 -0.0158701,0 -0.0307717,0.00412992 -0.0447795,0.0124724 -0.0139213,0.00825984 -0.0248504,0.0193543 -0.0325472,0.0330315 -0.00825984,0.0145787 -0.015622,0.0374134 -0.0221024,0.0685827l-0.0225945 0.108169 -0.0429094 0zm0.277795 -0.095622c0,-0.0491496 0.0144882,-0.0898701 0.0433976,-0.122177 0.0238858,-0.0265591 0.0552205,-0.0398386 0.0939252,-0.0398386 0.0313307,0 0.0561063,0.00979921 0.0744843,0.0293937 0.0178937,0.019185 0.0267992,0.0444528 0.0267992,0.0759488 0,0.0280906 -0.00534646,0.0541654 -0.0161102,0.0780512 -0.0120591,0.0263937 -0.0289882,0.0463071 -0.0509291,0.0597559 -0.0218583,0.013437 -0.0447717,0.0201614 -0.0686575,0.0201614 -0.0425118,0 -0.0725433,-0.0160354 -0.0901181,-0.0481772 -0.0085,-0.015311 -0.0127913,-0.0330394 -0.0127913,-0.0531181zm0.0429094 -0.00429134c0,0.0208858 0.00478346,0.0377283 0.0142559,0.0505197 0.0107677,0.0145787 0.0261535,0.0218622 0.0462283,0.0218622 0.0195945,0 0.0370827,-0.00752362 0.0524685,-0.0225079 0.0147323,-0.0144094 0.0256614,-0.0335236 0.0329528,-0.0574055 0.00494094,-0.0160276 0.0073622,-0.0310079 0.0073622,-0.0450906 0,-0.020252 -0.00493701,-0.0369291 -0.0147323,-0.0500394 -0.0108504,-0.0145787 -0.0261496,-0.0218622 -0.0457441,-0.0218622 -0.026315,0 -0.0485039,0.0125512 -0.0667165,0.0377323 -0.0174134,0.0238819 -0.0260748,0.0527874 -0.0260748,0.0867913zm0.0351417 -0.182579l0.0628307 -0.0652598 0.0474449 0 0.0294685 0.0652598 -0.0374882 0 -0.0192717 -0.0425118 -0.0390984 0.0425118 -0.0438858 0zm0.184516 0.282492l0.0526339 -0.25189 0.0388583 0 -0.00923228 0.0438819c0.0324724,-0.0331063 0.0633228,-0.0496299 0.0925512,-0.0496299 0.0195945,0 0.0352992,0.00518898 0.0469646,0.015626 0.0123858,0.0109291 0.0185394,0.0260748 0.0185394,0.0453425 0,0.00979921 -0.00202362,0.0245315 -0.00615354,0.0441339l-0.0320669 0.152535 -0.0429961 0 0.0335236 -0.159665c0.0033189,-0.0157913 0.00502362,-0.0272835 0.00502362,-0.0343346 0,-0.0188583 -0.0112559,-0.0282559 -0.033685,-0.0282559 -0.0497992,0 -0.0820197,0.0350591 -0.0965079,0.105094l-0.0245433 0.117161 -0.0429094 0zm0.267839 0.022748l0.0433937 0.00405118c-0.000484252,0.0170866 0.00502362,0.0281772 0.0163583,0.033437 0.00777559,0.00348031 0.017811,0.00518898 0.0301181,0.00518898 0.0260748,0 0.0447717,-0.00672441 0.0559528,-0.0201614 0.00744882,-0.00882677 0.0143268,-0.0284213 0.0206457,-0.0587874l0.00429134 -0.0204055c-0.0223504,0.0225945 -0.0459961,0.0339291 -0.0711732,0.0339291 -0.0290669,0 -0.0516614,-0.0110079 -0.0678465,-0.0329528 -0.0144921,-0.0195945 -0.0217835,-0.0445315 -0.0217835,-0.0747362 0,-0.0258228 0.0060748,-0.0505197 0.0182992,-0.0742441 0.0124646,-0.0246929 0.0292283,-0.0438819 0.0502795,-0.0576496 0.0187047,-0.0120591 0.0378937,-0.0180551 0.0577283,-0.0180551 0.0330394,0 0.0585354,0.0157126 0.0764331,0.0470472l0.00834252 -0.0412992 0.0393504 0 -0.0507717 0.24315c-0.00501575,0.0239646 -0.0110945,0.0427441 -0.0182126,0.056185 -0.00980315,0.0182992 -0.0234803,0.0319882 -0.0410472,0.0410551 -0.016122,0.00817323 -0.0347402,0.0122992 -0.0557126,0.0122992 -0.0420984,0 -0.0704409,-0.0101969 -0.0849291,-0.0305984 -0.0072874,-0.0101181 -0.0109331,-0.0216181 -0.0109331,-0.0346535 0,-0.00388583 0.000405512,-0.00817717 0.00121654,-0.0127992zm0.0535984 -0.134236c0,0.0174016 0.00169685,0.0303583 0.00501575,0.0388583 0.0096378,0.0250236 0.0261535,0.0374882 0.0495551,0.0374882 0.0170866,0 0.0326299,-0.00623228 0.0467205,-0.0186969 0.0121457,-0.0107756 0.0218622,-0.0247835 0.0291457,-0.0420236 0.00858268,-0.0207283 0.0127913,-0.0404882 0.0127913,-0.0592717 0,-0.0190236 -0.00510236,-0.034815 -0.015378,-0.0474409 -0.0110945,-0.0136024 -0.0258346,-0.0204055 -0.044374,-0.0204055 -0.0217835,0 -0.0410472,0.0113346 -0.0576496,0.0339213 -0.00695669,0.0093189 -0.0129567,0.0217047 -0.0181378,0.0370827 -0.00509449,0.0154646 -0.00768898,0.0289094 -0.00768898,0.0404882zm0.353898 0.111488l0.0526339 -0.25189 0.0388583 0 -0.00923228 0.0438819c0.0324724,-0.0331063 0.0633228,-0.0496299 0.0925512,-0.0496299 0.0195945,0 0.0352992,0.00518898 0.0469606,0.015626 0.0123898,0.0109291 0.0185433,0.0260748 0.0185433,0.0453425 0,0.00979921 -0.00202756,0.0245315 -0.00615354,0.0441339l-0.0320669 0.152535 -0.0429961 0 0.0335236 -0.159665c0.0033189,-0.0157913 0.00502362,-0.0272835 0.00502362,-0.0343346 0,-0.0188583 -0.0112559,-0.0282559 -0.033685,-0.0282559 -0.0497992,0 -0.0820197,0.0350591 -0.0965079,0.105094l-0.0245433 0.117161 -0.0429094 0zm0.267839 0.022748l0.0433898 0.00405118c-0.000480315,0.0170866 0.00502756,0.0281772 0.0163622,0.033437 0.00777559,0.00348031 0.0178071,0.00518898 0.0301181,0.00518898 0.0260748,0 0.0447717,-0.00672441 0.0559528,-0.0201614 0.00744488,-0.00882677 0.0143268,-0.0284213 0.0206417,-0.0587874l0.00429528 -0.0204055c-0.0223543,0.0225945 -0.0459961,0.0339291 -0.0711772,0.0339291 -0.029063,0 -0.0516575,-0.0110079 -0.0678465,-0.0329528 -0.0144882,-0.0195945 -0.0217795,-0.0445315 -0.0217795,-0.0747362 0,-0.0258228 0.0060748,-0.0505197 0.0182992,-0.0742441 0.0124646,-0.0246929 0.0292283,-0.0438819 0.0502795,-0.0576496 0.0187047,-0.0120591 0.0378937,-0.0180551 0.0577283,-0.0180551 0.0330394,0 0.0585354,0.0157126 0.0764291,0.0470472l0.00834646 -0.0412992 0.0393504 0 -0.0507717 0.24315c-0.00501575,0.0239646 -0.0110945,0.0427441 -0.0182165,0.056185 -0.00979921,0.0182992 -0.0234803,0.0319882 -0.0410472,0.0410551 -0.0161181,0.00817323 -0.0347362,0.0122992 -0.0557087,0.0122992 -0.0420984,0 -0.0704409,-0.0101969 -0.0849331,-0.0305984 -0.00728346,-0.0101181 -0.0109291,-0.0216181 -0.0109291,-0.0346535 0,-0.00388583 0.000405512,-0.00817717 0.00121654,-0.0127992zm0.0535984 -0.134236c0,0.0174016 0.00169685,0.0303583 0.00501575,0.0388583 0.0096378,0.0250236 0.0261535,0.0374882 0.0495551,0.0374882 0.0170866,0 0.032626,-0.00623228 0.0467205,-0.0186969 0.0121457,-0.0107756 0.0218583,-0.0247835 0.0291417,-0.0420236 0.00858661,-0.0207283 0.0127953,-0.0404882 0.0127953,-0.0592717 0,-0.0190236 -0.0051063,-0.034815 -0.015378,-0.0474409 -0.0110945,-0.0136024 -0.0258346,-0.0204055 -0.044378,-0.0204055 -0.0217795,0 -0.0410472,0.0113346 -0.0576496,0.0339213 -0.00695669,0.0093189 -0.0129528,0.0217047 -0.0181339,0.0370827 -0.00509449,0.0154646 -0.00768898,0.0289094 -0.00768898,0.0404882zm0.390902 0.0659055c-0.0303583,0.0340079 -0.0612953,0.0510039 -0.0927047,0.0510039 -0.0182165,0 -0.0332835,-0.00493701 -0.0453425,-0.0148937 -0.0131181,-0.0104488 -0.0196772,-0.0246102 -0.0196772,-0.0425039 0,-0.010689 0.00266929,-0.0289134 0.00810236,-0.0544961l0.0303583 -0.145417 0.0426693 0 -0.0336811 0.161043c-0.00283465,0.0136024 -0.00429134,0.0240512 -0.00429134,0.0313346 0,0.0200827 0.0115,0.0301181 0.0344094,0.0301181 0.0250157,0 0.0466339,-0.0108425 0.0650118,-0.0325472 0.00801575,-0.00995669 0.0146654,-0.0216969 0.0199213,-0.0352992 0.00381102,-0.00947244 0.00785433,-0.0247756 0.0120669,-0.0458228l0.0228346 -0.108827 0.0431535 0 -0.00477559 0.0222638c0.00744488,-0.00566142 0.0127047,-0.0157835 0.0158661,-0.0303583l-0.0182205 0 0.00712992 -0.033437 0.0334331 0 -0.00615354 0.0291457c-0.00590551,0.0278504 -0.0176457,0.0446142 -0.035374,0.0502795l-0.0448583 0.213996 -0.0395906 0 0.0097126 -0.0455827zm-0.0306102 -0.23715l-0.0462283 -0.0652598 0.0522205 0 0.0274449 0.0652598 -0.033437 0zm0.128819 0.282732l0.0526299 -0.25189 0.0388583 0 -0.00923228 0.0438819c0.0324724,-0.0331063 0.0633228,-0.0496299 0.0925551,-0.0496299 0.0195906,0 0.0352953,0.00518898 0.0469606,0.015626 0.0123858,0.0109291 0.0185394,0.0260748 0.0185394,0.0453425 0,0.00979921 -0.00202362,0.0245315 -0.00615354,0.0441339l-0.0320669 0.152535 -0.0429961 0 0.0335236 -0.159665c0.0033189,-0.0157913 0.00502362,-0.0272835 0.00502362,-0.0343346 0,-0.0188583 -0.0112559,-0.0282559 -0.033685,-0.0282559 -0.0497953,0 -0.0820197,0.0350591 -0.0965079,0.105094l-0.0245394 0.117161 -0.0429094 0zm0.267835 0.022748l0.0433937 0.00405118c-0.000484252,0.0170866 0.00502362,0.0281772 0.0163583,0.033437 0.00777559,0.00348031 0.017811,0.00518898 0.0301181,0.00518898 0.0260748,0 0.0447717,-0.00672441 0.0559528,-0.0201614 0.00744882,-0.00882677 0.0143268,-0.0284213 0.0206457,-0.0587874l0.00429134 -0.0204055c-0.0223504,0.0225945 -0.0459961,0.0339291 -0.0711732,0.0339291 -0.0290669,0 -0.0516614,-0.0110079 -0.0678465,-0.0329528 -0.0144921,-0.0195945 -0.0217835,-0.0445315 -0.0217835,-0.0747362 0,-0.0258228 0.00607874,-0.0505197 0.0182992,-0.0742441 0.0124646,-0.0246929 0.0292323,-0.0438819 0.0502795,-0.0576496 0.0187047,-0.0120591 0.0378937,-0.0180551 0.0577283,-0.0180551 0.0330394,0 0.0585394,0.0157126 0.0764331,0.0470472l0.00834252 -0.0412992 0.0393504 0 -0.0507717 0.24315c-0.00501575,0.0239646 -0.0110945,0.0427441 -0.0182126,0.056185 -0.00980315,0.0182992 -0.0234803,0.0319882 -0.0410472,0.0410551 -0.016122,0.00817323 -0.0347402,0.0122992 -0.0557126,0.0122992 -0.0420984,0 -0.0704409,-0.0101969 -0.0849291,-0.0305984 -0.00728346,-0.0101181 -0.0109331,-0.0216181 -0.0109331,-0.0346535 0,-0.00388583 0.000405512,-0.00817717 0.00121654,-0.0127992zm0.0535984 -0.134236c0,0.0174016 0.00169685,0.0303583 0.00501575,0.0388583 0.0096378,0.0250236 0.0261535,0.0374882 0.0495591,0.0374882 0.0170827,0 0.032626,-0.00623228 0.0467165,-0.0186969 0.0121457,-0.0107756 0.0218622,-0.0247835 0.0291457,-0.0420236 0.00858661,-0.0207283 0.0127913,-0.0404882 0.0127913,-0.0592717 0,-0.0190236 -0.00510236,-0.034815 -0.015378,-0.0474409 -0.0110945,-0.0136024 -0.0258346,-0.0204055 -0.044374,-0.0204055 -0.0217835,0 -0.0410472,0.0113346 -0.0576496,0.0339213 -0.00695669,0.0093189 -0.0129567,0.0217047 -0.0181378,0.0370827 -0.00509449,0.0154646 -0.00768898,0.0289094 -0.00768898,0.0404882zm0.417461 0.111488l-0.0412953 -0.25189 0.0418583 0 0.0214606 0.138701c0.0024252,0.015378 0.00534646,0.0401614 0.00874016,0.0743228 0.00842126,-0.0180512 0.0188701,-0.0386181 0.0315,-0.0615315l0.0842835 -0.151492 0.0453425 0 -0.144205 0.25189 -0.047685 0zm0.351311 -0.0455827c-0.0303583,0.0340079 -0.0612953,0.0510039 -0.0927047,0.0510039 -0.0182126,0 -0.0332835,-0.00493701 -0.0453425,-0.0148937 -0.0131181,-0.0104488 -0.0196772,-0.0246102 -0.0196772,-0.0425039 0,-0.010689 0.00267323,-0.0289134 0.00810236,-0.0544961l0.0303583 -0.145417 0.0426693 0 -0.0336772 0.161043c-0.00283465,0.0136024 -0.00429528,0.0240512 -0.00429528,0.0313346 0,0.0200827 0.0115,0.0301181 0.0344134,0.0301181 0.0250157,0 0.0466339,-0.0108425 0.0650118,-0.0325472 0.00801575,-0.00995669 0.0146614,-0.0216969 0.0199173,-0.0352992 0.00381102,-0.00947244 0.00785433,-0.0247756 0.0120709,-0.0458228l0.0228346 -0.108827 0.0431496 0 -0.00477559 0.0222638c0.00744882,-0.00566142 0.0127047,-0.0157835 0.0158701,-0.0303583l-0.0182244 0 0.00712992 -0.033437 0.033437 0 -0.00615354 0.0291457c-0.00590551,0.0278504 -0.0176457,0.0446142 -0.035378,0.0502795l-0.0448583 0.213996 -0.0395906 0 0.0097126 -0.0455827zm0.148488 -0.054252c0,0.0204882 0.00477559,0.0374094 0.014248,0.0505276 0.0109291,0.0144921 0.0263189,0.0217756 0.0462362,0.0217756 0.0193543,0 0.0367559,-0.00752362 0.0524606,-0.0225079 0.0148189,-0.0144094 0.0258346,-0.0335236 0.0329567,-0.0574055 0.00493701,-0.0157835 0.00737008,-0.0308425 0.00737008,-0.0450906 0,-0.0204055 -0.00494094,-0.0370866 -0.0147323,-0.0500394 -0.0107756,-0.0145787 -0.0259882,-0.0217835 -0.045748,-0.0217835 -0.0262362,0 -0.0485039,0.0125512 -0.0666378,0.0376535 -0.0174055,0.0242047 -0.0261535,0.0531929 -0.0261535,0.0868701zm0.158701 -0.16015l0.00711811 -0.033437 0.033437 0 -0.00590157 0.0291457c-0.00381102,0.0185394 -0.0104488,0.0323071 -0.0199213,0.0412953 0.0148937,0.0182165 0.0222638,0.0417717 0.0222638,0.070685 0,0.0284961 -0.00534252,0.0544843 -0.0161102,0.0780512 -0.0121457,0.0263937 -0.0290669,0.0463071 -0.0507638,0.0597559 -0.0214606,0.0132717 -0.0444528,0.0199094 -0.0687441,0.0199094 -0.0424252,0 -0.0724646,-0.0159449 -0.0901969,-0.0478465 -0.00833465,-0.0155433 -0.0125512,-0.0332756 -0.0125512,-0.0531969 0,-0.0489843 0.0144134,-0.0897126 0.0431614,-0.122098 0.0238858,-0.0266378 0.0552165,-0.0399173 0.0939134,-0.0399173 0.0288228,0 0.0522283,0.00834252 0.0702874,0.0249449 0.00582677,-0.006 0.00995276,-0.0151457 0.0122992,-0.0272913l-0.0182913 0zm0.0612008 0.259984l0.0526339 -0.25189 0.0388583 0 -0.00923228 0.0438819c0.0324724,-0.0331063 0.0633228,-0.0496299 0.0925512,-0.0496299 0.0195945,0 0.0352992,0.00518898 0.0469606,0.015626 0.0123858,0.0109291 0.0185433,0.0260748 0.0185433,0.0453425 0,0.00979921 -0.00202756,0.0245315 -0.00615748,0.0441339l-0.032063 0.152535 -0.0429961 0 0.0335197 -0.159665c0.0033189,-0.0157913 0.00502756,-0.0272835 0.00502756,-0.0343346 0,-0.0188583 -0.0112559,-0.0282559 -0.033685,-0.0282559 -0.0497992,0 -0.0820197,0.0350591 -0.0965118,0.105094l-0.0245394 0.117161 -0.0429094 0zm0.388307 0l0.109551 -0.12785 -0.0628307 -0.124039 0.0474528 0 0.0213701 0.0448583c0.00744488,0.015626 0.0144961,0.0316614 0.0212992,0.0480984l0.072622 -0.0929567 0.0523819 0 -0.10574 0.127366 0.063563 0.124524 -0.0475276 0 -0.0251024 -0.051252c-0.00550787,-0.011252 -0.0116535,-0.0247756 -0.0182992,-0.0405669l-0.0748898 0.0918189 -0.0538504 0zm0.429531 -0.0313346c-0.0285748,0.0246969 -0.0576417,0.0370079 -0.0870354,0.0370079 -0.0224291,0 -0.0408937,-0.00648425 -0.0553071,-0.0194409 -0.0148071,-0.013437 -0.0222638,-0.0313307 -0.0222638,-0.0535984 0,-0.0278504 0.0117402,-0.049063 0.0351417,-0.0635512 0.0104488,-0.0063189 0.0233976,-0.0110157 0.0388701,-0.0140079 0.00809055,-0.00162205 0.0272795,-0.003 0.0577244,-0.00429528 0.024937,-0.0012126 0.0433937,-0.0042126 0.0552205,-0.00874803 0.0033189,-0.0117402 0.00501575,-0.0214528 0.00501575,-0.0292283 0,-0.0235591 -0.0182126,-0.0352992 -0.0545709,-0.0352992 -0.0352992,0 -0.058374,0.0152992 -0.0693031,0.0459882l-0.0434016 -0.00380315c0.0182992,-0.0515827 0.0565984,-0.0773268 0.114807,-0.0773268 0.0310157,0 0.0557087,0.00745276 0.0740118,0.0222717 0.0139213,0.011248 0.0208858,0.0256614 0.0208858,0.0432283 0,0.0134488 -0.00194094,0.0289882 -0.00591339,0.0467205l-0.0140079 0.0625906c-0.00444882,0.0198346 -0.00671654,0.0360315 -0.00671654,0.0486575 0,0.00794094 0.00177559,0.0192756 0.00525984,0.0341693l-0.0433937 0c-0.00242913,-0.00825591 -0.00405118,-0.0186181 -0.00502362,-0.0313346zm0.0159528 -0.0962638c-0.0102835,0.00412598 -0.0282559,0.00728346 -0.0539252,0.00947244 -0.0202402,0.00169685 -0.0339252,0.00348031 -0.0410472,0.0051811 -0.0169213,0.00379921 -0.0285827,0.0102835 -0.0350551,0.0195039 -0.00526772,0.00737008 -0.0078622,0.0156299 -0.0078622,0.0246181 0,0.0134409 0.00478346,0.0238858 0.0142559,0.0313346 0.00866535,0.0066378 0.0199134,0.00995669 0.0336772,0.00995669 0.0148976,0 0.028748,-0.00387795 0.0417835,-0.0116535 0.0129528,-0.00769685 0.0231496,-0.0182244 0.0305984,-0.0314213 0.00737008,-0.0131969 0.0132835,-0.0322205 0.0175748,-0.0569921z"/>
  </g>
 </g>
</svg>
