<svg width="35" height="35" viewBox="0 0 35 35" fill="none" xmlns="http://www.w3.org/2000/svg">
<path d="M27.9686 12.0507C26.6144 10.6836 24.9806 10 23.0666 10H10.9334C9.01961 10 7.38527 10.6836 6.03133 12.0507C4.67706 13.4179 4 15.0676 4 16.9999C4 18.9324 4.67725 20.582 6.03133 21.9491C7.38527 23.3161 9.01942 24 10.9334 24C12.6668 24 14.1922 23.4164 15.5104 22.2498H18.4895C19.8077 23.4164 21.3331 24 23.0666 24C24.9803 24 26.6144 23.3165 27.9686 21.9491C29.3228 20.5817 30 18.9325 30 16.9999C30 15.0676 29.3228 13.4179 27.9686 12.0507ZM15.2666 17.875C15.2666 18.0026 15.2261 18.1075 15.1448 18.1893C15.0635 18.2714 14.9598 18.3123 14.8333 18.3123H12.2333V20.9374C12.2333 21.0651 12.1928 21.1699 12.1115 21.2517C12.0302 21.3338 11.9266 21.3747 11.8 21.3747H10.0667C9.94033 21.3747 9.83645 21.3338 9.75521 21.2517C9.67405 21.1699 9.63355 21.0651 9.63355 20.9374V18.3123H7.03329C6.90694 18.3123 6.80307 18.2714 6.72182 18.1893C6.64067 18.1075 6.60016 18.0026 6.60016 17.875V16.125C6.60016 15.9974 6.64067 15.8925 6.72182 15.8105C6.80307 15.7284 6.90694 15.6875 7.03329 15.6875H9.63345V13.0625C9.63345 12.9349 9.67396 12.8301 9.75511 12.748C9.83631 12.6659 9.94023 12.6251 10.0666 12.6251H11.7999C11.9264 12.6251 12.0301 12.666 12.1114 12.748C12.1927 12.8301 12.2332 12.9349 12.2332 13.0625V15.6875H14.8332C14.9597 15.6875 15.0634 15.7284 15.1447 15.8105C15.226 15.8925 15.2665 15.9974 15.2665 16.125V17.875H15.2666ZM22.5589 19.9872C22.2203 20.329 21.8117 20.5001 21.3331 20.5001C20.8549 20.5001 20.4462 20.329 20.1078 19.9872C19.7692 19.6457 19.5999 19.233 19.5999 18.75C19.5999 18.2668 19.7692 17.8544 20.1078 17.5127C20.4462 17.1711 20.8549 16.9999 21.3331 16.9999C21.8117 16.9999 22.2203 17.1711 22.5589 17.5127C22.8972 17.8544 23.0666 18.2668 23.0666 18.75C23.0666 19.233 22.8972 19.6457 22.5589 19.9872ZM26.0252 16.4872C25.687 16.8289 25.2783 16.9999 24.7998 16.9999C24.3213 16.9999 23.9127 16.8291 23.5743 16.4872C23.2357 16.1453 23.0664 15.733 23.0664 15.2498C23.0664 14.7669 23.2357 14.3544 23.5743 14.0127C23.9127 13.6708 24.3213 13.5 24.7998 13.5C25.2783 13.5 25.687 13.6708 26.0252 14.0127C26.3638 14.3544 26.5333 14.7669 26.5333 15.2498C26.5333 15.733 26.364 16.1455 26.0252 16.4872Z" fill="#2EB3E8"/>
</svg>
