<svg width="22" height="22" viewBox="0 0 22 22" fill="none" xmlns="http://www.w3.org/2000/svg">
<rect width="22" height="22" rx="11" fill="#288AD6"/>
<path d="M13.0146 15.0953C13.9258 15.0997 14.679 14.4034 14.7252 13.5155V13.4927L16.3843 11.6728C16.7347 11.2768 17.3418 11.2188 17.7634 11.5413C17.9665 11.7057 18.0932 11.9424 18.1143 12.1992C18.136 12.4555 18.0504 12.7095 17.877 12.9033L14.5641 16.611C14.1225 17.1056 13.4835 17.3886 12.8113 17.388H7.83187L6.96744 18.2325L3.88234 15.2963L6.0922 13.1573C6.54124 12.7217 7.10669 12.4187 7.72349 12.2822C8.34086 12.1457 8.98503 12.1814 9.58191 12.3858L10.0669 12.5529H13.0538C13.3089 12.5524 13.5525 12.6532 13.73 12.8314C13.9069 13.0102 14.0027 13.2509 13.9947 13.4993C13.9611 14.0018 13.5303 14.39 13.0145 14.3822H11.2222C11.0208 14.3822 10.8571 14.5421 10.8571 14.7387C10.8571 14.9354 11.0208 15.0952 11.2222 15.0952L13.0146 15.0953ZM11.2064 8.27319C11.4472 8.40632 11.6988 8.52107 11.9584 8.6152C12.0697 8.65809 12.1803 8.7021 12.2899 8.74945C12.4211 8.80404 12.5432 8.8759 12.6539 8.96335C12.7852 9.05081 12.8542 9.20344 12.8331 9.35718C12.812 9.51092 12.7036 9.64016 12.5529 9.69084C12.3549 9.77217 12.1381 9.79946 11.9247 9.7705C11.5738 9.73262 11.232 9.63346 10.9171 9.47693C10.8515 9.43683 10.7767 9.41343 10.6997 9.40842C10.5245 9.40842 10.4703 9.5811 10.4395 9.67357C10.3825 9.85183 10.3317 10.0317 10.282 10.2111C10.2005 10.5047 10.2512 10.6144 10.5331 10.7487C10.8429 10.8862 11.1716 10.9782 11.5088 11.0227C11.5624 11.0283 11.6149 11.0394 11.6663 11.0556C11.6777 11.1102 11.6822 11.1664 11.6794 11.2221V11.5742C11.6737 11.6656 11.7079 11.7541 11.7735 11.8193C11.8392 11.8839 11.9299 11.9185 12.0229 11.914H12.5632C12.6545 11.9185 12.7429 11.8845 12.8063 11.8204C12.8702 11.7564 12.9016 11.6689 12.8936 11.5803V11.4205V11.094C12.8936 10.9854 12.9198 10.9514 13.0397 10.9186C13.4265 10.8194 13.7717 10.6033 14.0256 10.3008C14.3571 9.91032 14.4929 9.39617 14.3965 8.89763C14.2881 8.36676 13.9423 7.90999 13.4545 7.65264C13.1795 7.51115 12.897 7.38582 12.6072 7.27664L12.4959 7.23263V7.23208C12.3264 7.16579 12.1672 7.07667 12.0229 6.96692C11.9213 6.89506 11.866 6.77642 11.8768 6.65442C11.9008 6.5302 11.9898 6.42714 12.1119 6.38371C12.1992 6.34973 12.2928 6.3319 12.3863 6.33079C12.7732 6.30795 13.1589 6.38259 13.507 6.54747C13.8664 6.71737 13.9452 6.46169 13.9743 6.35362C14.0222 6.21102 14.065 6.06841 14.1072 5.91857L14.1568 5.74756C14.1877 5.66623 14.1831 5.57655 14.1443 5.49856C14.1061 5.42057 14.0365 5.36153 13.9526 5.33424C13.705 5.22729 13.4442 5.15321 13.1766 5.11309C12.9358 5.07577 12.9358 5.07577 12.9358 4.83903C12.9358 4.34159 12.8964 4.26862 12.3983 4.26862H12.1296C11.8375 4.27697 11.7587 4.36108 11.7513 4.64072V4.83458V4.93874C11.7513 5.1482 11.7513 5.1482 11.5379 5.22395C10.7608 5.49913 10.3431 6.01828 10.2963 6.76534C10.2541 7.3948 10.5537 7.89111 11.2064 8.27321L11.2064 8.27319Z" fill="white"/>
</svg>
