<?xml version="1.0" encoding="utf-8"?>
<!-- Generator: Adobe Illustrator 23.0.2, SVG Export Plug-In . SVG Version: 6.00 Build 0)  -->
<svg version="1.1" id="Capa_1" xmlns="http://www.w3.org/2000/svg" xmlns:xlink="http://www.w3.org/1999/xlink" x="0px" y="0px"
	 viewBox="0 0 510 510" style="enable-background:new 0 0 510 510;" xml:space="preserve">
<g>
	<g id="explore">
		<path d="M255,227.7c-14.9,0-27.3,12.4-27.3,27.3c0,14.9,12.4,27.2,27.3,27.2c14.9,0,27.2-12.4,27.2-27.3
			C282.2,240,269.9,227.7,255,227.7z M255,7C118.6,7,7,118.6,7,255s111.6,248,248,248s248-111.6,248-248S391.4,7,255,7z
			 M309.6,309.6l-203.4,94.2l94.2-203.4l203.4-94.2L309.6,309.6z"/>
	</g>
</g>
</svg>
