<?xml version="1.0" encoding="utf-8"?>
<!-- Generator: Adobe Illustrator 23.0.0, SVG Export Plug-In . SVG Version: 6.00 Build 0)  -->
<svg version="1.1" id="Capa_1" xmlns="http://www.w3.org/2000/svg" xmlns:xlink="http://www.w3.org/1999/xlink" x="0px" y="0px"
	 viewBox="0 0 512 512" style="enable-background:new 0 0 512 512;" xml:space="preserve">
<g>
	<path d="M72.3,376.1v-359c0-5.1-4.1-9.2-9.2-9.2s-9.2,4.1-9.2,9.2v359c-31.1,4.5-55.1,31.2-55.1,63.6c0,35.4,28.8,64.3,64.3,64.3
		s64.3-28.9,64.3-64.3C127.4,407.4,103.4,380.6,72.3,376.1z"/>
	<path d="M265.2,188.9V17.2c0-5.1-4.1-9.2-9.2-9.2s-9.2,4.1-9.2,9.2v171.1c-33.1,3.6-58.9,31.7-58.9,65.8s25.8,62.1,58.9,65.8v174.9
		c0,5.1,4.1,9.2,9.2,9.2s9.2-4.1,9.2-9.2V319.3c31.2-5.3,55.1-32.5,55.1-65.2S296.4,194.2,265.2,188.9z"/>
	<path d="M513.2,72.3c0-35.4-28.8-64.3-64.3-64.3s-64.3,28.9-64.3,64.3c0,32.3,24,59.1,55.1,63.6v359c0,5.1,4.1,9.2,9.2,9.2
		c5.1,0,9.2-4.1,9.2-9.2v-359C489.2,131.4,513.2,104.6,513.2,72.3z"/>
</g>
</svg>
