<?xml version="1.0" encoding="utf-8"?>
<!-- Generator: Adobe Illustrator 22.1.0, SVG Export Plug-In . SVG Version: 6.00 Build 0)  -->
<svg version="1.1" id="Layer_1" xmlns="http://www.w3.org/2000/svg" xmlns:xlink="http://www.w3.org/1999/xlink" x="0px" y="0px"
	 viewBox="0 0 32 32" style="enable-background:new 0 0 32 32;" xml:space="preserve">
<title>entertainment</title>
<g id="Layer_2_1_">
	<g id="Layer_1-2">
		<path d="M31,13.5L27.4,10c-0.4-0.4-0.6-0.9-0.5-1.2c0.2-0.4,0.6-0.6,1-0.6c1.5-0.1,2.9-1,3.5-2.4c0.5-1.5,0.1-3.2-1-4.3l0,0
			c-1.1-1.1-2.8-1.5-4.3-1c-1.4,0.6-2.3,2-2.4,3.5c0,0.4-0.2,0.8-0.6,1c-0.4,0.1-0.9-0.1-1.2-0.5L18.5,1c-1.3-1.4-3.5-1.4-4.9,0
			c0,0,0,0,0,0L10,4.6C9.6,5,9.1,5.2,8.8,5C8.4,4.8,8.2,4.4,8.2,4c-0.1-1.5-1-2.9-2.4-3.5C4.3,0,2.6,0.4,1.5,1.5v0
			C0.4,2.7,0,4.3,0.5,5.8C1.2,7.2,2.5,8.1,4,8.2c0.4,0,0.8,0.2,1,0.6C5.1,9.2,5,9.6,4.5,10L1,13.5c-1.4,1.4-1.4,3.6,0,4.9L4.5,22
			c0.4,0.4,0.6,0.9,0.5,1.2c-0.2,0.4-0.6,0.6-1,0.6c-1.5,0.1-2.8,1-3.5,2.3c-0.5,1.5-0.1,3.2,1,4.3h0c1.1,1.1,2.8,1.5,4.3,1
			c1.4-0.6,2.3-1.9,2.4-3.4c0-0.4,0.2-0.8,0.6-1c0.3-0.1,0.8,0,1.2,0.5l3.5,3.5c1.4,1.4,3.6,1.4,5,0l3.5-3.5l0,0
			c1.1-0.9,1.2-2.4,0.4-3.5c-0.5-0.6-1.2-0.9-1.9-0.9c-0.9,0-1.8-0.6-2.1-1.4c-0.4-1.4,0.4-2.8,1.7-3.2c0.5-0.1,1-0.1,1.5,0
			c0.9,0.4,1.4,1.2,1.4,2.1c0,1,0.6,2,1.6,2.4c1,0.3,2.1,0,2.8-0.8l3.6-3.6l0,0C32.4,17.1,32.4,14.9,31,13.5
			C31,13.6,31,13.5,31,13.5L31,13.5z M29.9,17.3l-3.6,3.6c-0.3,0.4-0.7,0.5-1.2,0.4c-0.4-0.2-0.6-0.6-0.6-1c-0.1-1.5-1-2.9-2.4-3.5
			c-1.5-0.5-3.2-0.1-4.3,1h0c-1.2,1.1-1.5,2.8-1,4.3c0.6,1.4,2,2.3,3.5,2.4c0.4,0,0.8,0.2,1,0.6c0.1,0.3,0,0.8-0.4,1.2l-3.5,3.5
			c-0.8,0.7-2,0.7-2.8,0l-3.5-3.5c-0.5-0.6-1.3-1-2.1-1c-0.3,0-0.5,0.1-0.8,0.1c-0.9,0.4-1.6,1.3-1.6,2.4c0,0.9-0.6,1.7-1.4,2.1
			c-0.9,0.3-1.9,0-2.6-0.7c-0.7-0.6-1-1.6-0.7-2.5c0.4-0.8,1.2-1.4,2.1-1.4c1,0,2-0.6,2.4-1.6c0.3-1,0-2.2-0.8-2.9l-3.5-3.5
			C1.8,17,1.6,16.5,1.6,16c0-0.5,0.2-1,0.6-1.3l3.5-3.5c0.8-0.7,1.2-1.8,0.8-2.9c-0.4-1-1.3-1.6-2.4-1.6C3.2,6.6,2.4,6.1,2,5.2
			C1.7,4.3,1.9,3.3,2.7,2.6C3.3,2,4.3,1.7,5.2,2c0.8,0.4,1.4,1.2,1.4,2.1c0,1,0.6,2,1.6,2.4c1,0.3,2.2,0,2.9-0.8l3.6-3.5
			c0.7-0.7,1.9-0.7,2.7,0l3.5,3.5c0.7,0.8,1.8,1.2,2.9,0.8c1-0.4,1.6-1.3,1.6-2.4c0-0.9,0.6-1.7,1.4-2.1c0.9-0.3,1.9,0,2.6,0.7
			c0.7,0.6,1,1.6,0.7,2.5c-0.4,0.8-1.2,1.4-2.1,1.4c-1.1,0-2,0.6-2.4,1.6c-0.3,1,0,2.2,0.8,2.9l3.6,3.6l0,0
			C30.6,15.4,30.6,16.6,29.9,17.3C29.9,17.3,29.9,17.3,29.9,17.3L29.9,17.3z"/>
	</g>
</g>
</svg>
