<?xml version="1.0" encoding="utf-8"?>
<!-- Generator: Adobe Illustrator 21.0.0, SVG Export Plug-In . SVG Version: 6.00 Build 0)  -->
<svg version="1.1" id="Capa_1" xmlns="http://www.w3.org/2000/svg" xmlns:xlink="http://www.w3.org/1999/xlink" x="0px" y="0px"
	 viewBox="0 0 664.3 512" style="enable-background:new 0 0 664.3 512;" xml:space="preserve">
<g>
	<path d="M12.9,45.9C4.9,58.7,0,73.8,0,90v332c0,14.6,4.1,28.1,10.7,39.9l209.6-234.6L12.9,45.9z"/>
	<path d="M620.6,17.5C608.7,11,595.4,7,581,7H83c-14.4,0-27.7,4-39.5,10.5L332,269.9L620.6,17.5z"/>
	<path d="M345.7,313.1c-3.9,3.4-8.8,5.1-13.7,5.1c-4.9,0-9.8-1.7-13.7-5.1l-66.8-58.5L39.2,492.2C52,500.2,66.9,505,83,505h498
		c16.1,0,31-4.8,43.8-12.8L412.4,254.7L345.7,313.1z"/>
	<path d="M651.1,45.9L443.7,227.4l209.7,234.6C659.9,450,664,436.6,664,422h0V90C664,73.8,659.1,58.7,651.1,45.9z"/>
</g>
</svg>
