<?xml version="1.0" encoding="utf-8"?>
<!-- Generator: Adobe Illustrator 23.0.1, SVG Export Plug-In . SVG Version: 6.00 Build 0)  -->
<svg version="1.1" id="Layer_1" xmlns="http://www.w3.org/2000/svg" xmlns:xlink="http://www.w3.org/1999/xlink" x="0px" y="0px"
	 viewBox="0 0 548.8 512" style="enable-background:new 0 0 548.8 512;" xml:space="preserve">
<title>Asset 1</title>
<g>
	<g id="Layer_1-2">
		<path d="M429.8,237.7c65.6-0.1,118.7-53.4,118.7-119S495.1,0.1,429.5,0.1c-65.6,0.1-118.7,53.3-118.7,118.8
			c-0.1,65.5,53,118.7,118.4,118.8C429.5,237.7,429.6,237.7,429.8,237.7z M429.8,67.2c28.5,0.1,51.7,23.4,51.6,51.9
			c-0.1,28.5-23.4,51.7-51.9,51.6s-51.6-23.3-51.6-51.7c0-28.5,23.2-51.7,51.7-51.7C429.7,67.2,429.7,67.2,429.8,67.2z"/>
		<path d="M198.1,0.1c-19.3,0-38.1,5.8-53.9,16.7C128.3,6,109.4,0.1,90.3,0.1C42.2-1.7,1.9,35.8,0,83.7v154h72.4v-154
			c0.4-9.4,8.4-16.8,17.8-16.5c9.4-0.9,17.9,6.2,18.7,15.6c0,0.3,0,0.5,0,0.9l0,0v154h71.6v-154l0,0c3.2-9.9,13.8-15.2,23.7-11.9
			c5.7,1.8,10.1,6.3,11.9,11.9v154h72.4v-154C286.4,35.7,246-1.8,198.1,0.1z"/>
		<path d="M429.8,512c65.7,0,119-53.3,119-119s-53.3-119-119-119s-119,53.3-119,119c0,0.2,0,0.3,0,0.5
			C311,459,364.1,512.1,429.6,512C429.7,512,429.7,512,429.8,512z M429.8,341.5c28.5,0.1,51.7,23.4,51.6,51.9
			c-0.1,28.5-23.4,51.7-51.9,51.6c-28.3-0.1-51.3-23-51.6-51.3c-0.3-28.4,22.5-51.8,50.9-52.1C429.2,341.5,429.5,341.5,429.8,341.5z
			"/>
		<path d="M198.1,274.4c-19.3-0.1-38.2,5.7-53.9,16.7c-15.9-10.9-34.7-16.8-53.9-16.7C42.3,272.6,2,310.1,0.1,358v154h72.4V358
			c0.4-9.4,8.4-16.8,17.8-16.5c9.4-0.9,17.9,6.2,18.7,15.6c0,0.3,0,0.5,0,0.9l0,0v154h71.6V358l0,0c3.2-9.9,13.8-15.2,23.7-11.9
			c5.7,1.8,10.1,6.3,11.9,11.9v154h72.2V358C286.4,309.9,246,272.5,198.1,274.4z"/>
	</g>
</g>
</svg>
