<?xml version="1.0" encoding="utf-8"?>
<!-- Generator: Adobe Illustrator 22.1.0, SVG Export Plug-In . SVG Version: 6.00 Build 0)  -->
<svg version="1.1" id="Layer_1" xmlns="http://www.w3.org/2000/svg" xmlns:xlink="http://www.w3.org/1999/xlink" x="0px" y="0px"
	 viewBox="0 0 32 31.4" style="enable-background:new 0 0 32 31.4;" xml:space="preserve">
<title>setting</title>
<g id="Layer_2_1_">
	<g id="Layer_1-2">
		<path d="M27.6,11.7l-0.5-1.3c1.9-4.2,1.7-4.3,1.4-4.7l-2.4-2.3l-0.2-0.2h-0.3c-0.1,0-0.6,0-4.2,1.6L20,4.3C18.3,0,18.1,0,17.6,0
			h-3.4c-0.5,0-0.7,0-2.3,4.3l-1.3,0.5C9.3,4.2,7.8,3.6,6.3,3.3H6L3.5,5.8c-0.4,0.4-0.5,0.5,1.4,4.7l-0.5,1.3C0,13.4,0,13.6,0,14.1
			v3.3c0,0.5,0,0.7,4.4,2.3L4.9,21c-1.9,4.2-1.7,4.3-1.4,4.7L5.9,28l0.2,0.2h0.3c0.1,0,0.6,0,4.2-1.6l1.3,0.5
			c1.7,4.3,1.9,4.3,2.4,4.3h3.4c0.5,0,0.7,0,2.3-4.3l1.3-0.5c1.4,0.7,2.8,1.2,4.3,1.6H26l2.6-2.5c0.4-0.4,0.5-0.5-1.5-4.6l0.5-1.3
			c4.3-1.7,4.3-1.9,4.3-2.4V14C32,13.4,32,13.3,27.6,11.7z M30.6,16.9c-0.6,0.3-2.3,1-3.8,1.6l-0.3,0.1l-1,2.4l0.1,0.3
			c0.6,1.4,1.4,3,1.6,3.6l-1.9,1.8c-0.7-0.2-2.4-0.9-3.8-1.5l-0.3-0.1L19,26l-0.1,0.3c-0.5,1.4-1.2,3.1-1.5,3.7h-2.7
			c-0.3-0.6-1-2.3-1.6-3.7L13,26l-2.4-1l-0.3,0.1c-1.4,0.6-3.1,1.4-3.7,1.6l-1.8-1.8c0.2-0.7,0.9-2.3,1.5-3.7L6.4,21l-1-2.4
			l-0.3-0.1C3.7,18,2,17.3,1.4,17v-2.5c0.6-0.3,2.3-1,3.8-1.6l0.3-0.1l1-2.4l-0.1-0.3c-0.7-1.4-1.4-3-1.6-3.6l1.9-1.8
			c0.7,0.2,2.4,0.9,3.8,1.5l0.3,0.1l2.4-1L13.1,5c0.5-1.4,1.2-3,1.5-3.7h2.7c0.3,0.6,1,2.3,1.6,3.7L19,5.3l2.4,1l0.3-0.1
			c1.4-0.7,3.1-1.4,3.7-1.6l1.9,1.8c-0.2,0.7-0.9,2.3-1.5,3.7l-0.1,0.3l1,2.4l0.3,0.1c1.4,0.5,3.1,1.2,3.8,1.4L30.6,16.9z"/>
		<path d="M16,10.2c-3,0.1-5.4,2.6-5.4,5.6c0.1,3,2.6,5.4,5.6,5.4c3-0.1,5.4-2.5,5.4-5.5C21.6,12.6,19.1,10.2,16,10.2z M16,19.8
			c-2.3-0.1-4.1-2-4-4.2c0.1-2.3,2-4.1,4.2-4c2.2,0.1,4,1.9,4,4.1C20.2,18,18.3,19.8,16,19.8z"/>
	</g>
</g>
</svg>
