<?xml version="1.0" encoding="utf-8"?>
<!-- Generator: Adobe Illustrator 22.1.0, SVG Export Plug-In . SVG Version: 6.00 Build 0)  -->
<svg version="1.1" id="Layer_1" xmlns="http://www.w3.org/2000/svg" xmlns:xlink="http://www.w3.org/1999/xlink" x="0px" y="0px"
	 viewBox="0 0 27.1 32" style="enable-background:new 0 0 27.1 32;" xml:space="preserve">
<title>shopping-bag</title>
<g id="Layer_2_1_">
	<g id="Layer_1-2">
		<path d="M26,10.3L26,10.3c0,0,0-0.1,0-0.1l0,0c0-0.1,0-0.1,0-0.2l0,0l-1.7-2.7c-0.1-0.2-0.3-0.3-0.5-0.3h-0.9l0.4-1.6
			c0.1-0.3-0.1-0.6-0.4-0.7l-4.9-1.1c-0.5-2.5-3-4.1-5.5-3.5C11.5,0.3,10.5,1,9.8,1.9L9.8,2L3.7,2.7C3.4,2.8,3.2,3,3.2,3.3l0.4,3.7
			H3.3c-0.2,0-0.4,0.1-0.5,0.3L1.2,10l0,0v0.1l0,0c0,0,0,0.1,0,0.1l0,0L0,31.4c0,0.1,0,0.3,0.2,0.4C0.2,31.9,0.4,32,0.5,32h26
			c0.1,0,0.3-0.1,0.4-0.2c0.1-0.1,0.1-0.2,0.1-0.3v-0.1L26,10.3z M23.6,8.1l1,1.6h-2.3l0.4-1.6H23.6z M21.2,9.8H18l-1-4.1
			c0-0.1-0.1-0.3-0.2-0.3c-0.1-0.1-0.3-0.1-0.4-0.1l-0.9,0.2l0.3-1.2l6.3,1.5L21.2,9.8z M8.8,9.8L8.4,8.3l7.7-1.8l0.8,3.4H8.8z
			 M13.6,1.1c1.5,0,2.8,0.9,3.3,2.3L15.5,3c-0.1,0-0.3,0-0.4,0.1c-0.1,0.1-0.2,0.2-0.2,0.3l-0.5,2.3l-0.6,0.1l-0.4-3.7
			c0-0.1-0.1-0.3-0.2-0.4c-0.1-0.1-0.3-0.1-0.4-0.1l-1.3,0.2C12,1.3,12.8,1.1,13.6,1.1z M12.3,2.8l0.4,3.3L7.7,7.3
			C7.4,7.4,7.2,7.7,7.3,8l0.4,1.8H5.1l-0.7-6L12.3,2.8z M3.6,8.1h0.2L4,9.8H2.6L3.6,8.1z M1.1,30.9l1-20.1H25l1,20.1H1.1z"/>
		<path d="M17.6,11.9c-0.9,0-1.6,0.7-1.6,1.6c0,0.7,0.4,1.3,1.1,1.5v2c0,1.9-1.6,3.5-3.5,3.5c-1.9,0-3.5-1.6-3.5-3.5v-2
			c0.8-0.3,1.3-1.2,1-2.1S9.8,11.7,9,12c-0.8,0.3-1.3,1.2-1,2.1c0.2,0.5,0.5,0.8,1,1v2c0,2.5,2.1,4.6,4.6,4.6s4.6-2.1,4.6-4.6v-2
			c0.8-0.3,1.3-1.2,1-2.1C18.9,12.4,18.3,11.9,17.6,11.9z M9.5,13c0.3,0,0.5,0.2,0.5,0.5c0,0.1,0,0.2-0.1,0.3
			c-0.1-0.3-0.5-0.4-0.7-0.2c-0.1,0-0.2,0.1-0.2,0.2c0-0.1,0-0.2,0-0.3C9,13.3,9.2,13,9.5,13z M18.1,13.8c-0.1-0.2-0.3-0.3-0.5-0.3
			l0,0c-0.2,0-0.3,0.1-0.5,0.2c0-0.1,0-0.2,0-0.2c0-0.3,0.2-0.5,0.5-0.5c0.3,0,0.5,0.2,0.5,0.5c0,0,0,0,0,0
			C18.2,13.6,18.2,13.7,18.1,13.8L18.1,13.8z"/>
	</g>
</g>
</svg>
