<svg height="512pt" viewBox="0 -32 512 512" width="512pt" 
    xmlns="http://www.w3.org/2000/svg" fill="white">
    <g fill="#42a5f5">
        <path d="m85.332031 96.191406h-64c-5.886719 0-10.664062-4.777344-10.664062-10.667968v-64.191407c0-5.886719 4.777343-10.664062 10.664062-10.664062h64c5.890625 0 10.667969 4.777343 10.667969 10.664062v64.191407c0 5.890624-4.777344 10.667968-10.667969 10.667968zm0 0"/>
        <path d="m85.332031 267.222656h-64c-5.886719 0-10.664062-4.78125-10.664062-10.667968v-64.191407c0-5.886719 4.777343-10.667969 10.664062-10.667969h64c5.890625 0 10.667969 4.78125 10.667969 10.667969v64.191407c0 5.886718-4.777344 10.667968-10.667969 10.667968zm0 0"/>
        <path d="m85.332031 438.273438h-64c-5.886719 0-10.664062-4.78125-10.664062-10.667969v-64.191407c0-5.890624 4.777343-10.667968 10.664062-10.667968h64c5.890625 0 10.667969 4.777344 10.667969 10.667968v64.191407c0 5.886719-4.777344 10.667969-10.667969 10.667969zm0 0"/>
    </g>
    <path d="m69.332031 106.835938h-32c-20.585937 0-37.332031-16.746094-37.332031-37.332032v-32.171875c0-20.585937 16.746094-37.332031 37.332031-37.332031h32c20.589844 0 37.335938 16.769531 37.335938 37.332031v32.171875c0 20.585938-16.746094 37.332032-37.335938 37.332032zm-32-74.835938c-2.941406 0-5.332031 2.390625-5.332031 5.332031v32.171875c0 2.945313 2.390625 5.332032 5.332031 5.332032h32c2.945313 0 5.335938-2.386719 5.335938-5.332032v-32.171875c0-2.941406-2.390625-5.332031-5.335938-5.332031zm0 0"/>
    <path d="m69.332031 277.886719h-32c-20.585937 0-37.332031-16.746094-37.332031-37.332031v-32.171876c0-20.585937 16.746094-37.332031 37.332031-37.332031h32c20.589844 0 37.335938 16.746094 37.335938 37.332031v32.171876c0 20.585937-16.746094 37.332031-37.335938 37.332031zm-32-74.835938c-2.941406 0-5.332031 2.390625-5.332031 5.332031v32.171876c0 2.945312 2.390625 5.332031 5.332031 5.332031h32c2.945313 0 5.335938-2.386719 5.335938-5.332031v-32.171876c0-2.941406-2.390625-5.332031-5.335938-5.332031zm0 0"/>
    <path d="m69.332031 448.917969h-32c-20.585937 0-37.332031-16.746094-37.332031-37.332031v-32.171876c0-20.585937 16.746094-37.335937 37.332031-37.335937h32c20.589844 0 37.335938 16.75 37.335938 37.335937v32.171876c0 20.585937-16.746094 37.332031-37.335938 37.332031zm-32-74.816407c-2.941406 0-5.332031 2.390626-5.332031 5.332032v32.171875c0 2.945312 2.390625 5.332031 5.332031 5.332031h32c2.945313 0 5.335938-2.386719 5.335938-5.332031v-32.171875c0-2.941406-2.390625-5.332032-5.335938-5.332032zm0 0"/>
    <path d="m496 69.417969h-330.667969c-8.832031 0-16-7.167969-16-16s7.167969-16 16-16h330.667969c8.832031 0 16 7.167969 16 16s-7.167969 16-16 16zm0 0"/>
    <path d="m496 240.46875h-330.667969c-8.832031 0-16-7.167969-16-16s7.167969-16 16-16h330.667969c8.832031 0 16 7.167969 16 16s-7.167969 16-16 16zm0 0"/>
    <path d="m496 411.5h-330.667969c-8.832031 0-16-7.167969-16-16s7.167969-16 16-16h330.667969c8.832031 0 16 7.167969 16 16s-7.167969 16-16 16zm0 0"/>
</svg>