<svg width="35" height="35" viewBox="0 0 35 35" fill="none" xmlns="http://www.w3.org/2000/svg">
<path d="M10.5196 29.9795C11.7844 29.9795 12.8097 28.9629 12.8097 27.7089C12.8097 26.4548 11.7844 25.4382 10.5196 25.4382C9.2548 25.4382 8.22949 26.4548 8.22949 27.7089C8.22949 28.9629 9.2548 29.9795 10.5196 29.9795Z" fill="#F96268"/>
<path d="M26.5499 28.5606C27.8147 28.5606 28.84 27.544 28.84 26.2899C28.84 25.0359 27.8147 24.0193 26.5499 24.0193C25.2851 24.0193 24.2598 25.0359 24.2598 26.2899C24.2598 27.544 25.2851 28.5606 26.5499 28.5606Z" fill="#F96268"/>
<path d="M9.20838 24.1701C9.25926 24.5849 9.63996 24.8799 10.0582 24.8287L28.9984 22.5092L28.8141 21.0065L10.6314 23.2332L8.88022 8.95761C8.82934 8.54287 8.44864 8.24783 8.03044 8.29904L5 8.67017L5.18434 10.1729L7.45717 9.89452L9.20838 24.1701Z" fill="#F96268"/>
<path opacity="0.7" d="M11.6185 12.4406L26.0148 10.6911C26.2239 10.6656 26.3728 10.4767 26.3472 10.2694L26.0221 7.63997C25.9965 7.43262 25.806 7.28497 25.5969 7.31038L11.2006 9.05992C10.9915 9.08533 10.8426 9.27424 10.8682 9.48159L11.1933 12.111C11.2189 12.3184 11.4094 12.466 11.6185 12.4406Z" fill="#F96268"/>
<path d="M14.6269 21.2258L25.2347 19.9366C25.6533 19.8858 25.9508 19.5084 25.8995 19.0933L24.9708 11.5807L12.8477 13.054L13.7764 20.5666C13.8277 20.9817 14.2083 21.2766 14.6269 21.2258Z" fill="#F96268"/>
</svg>
