<svg width="35" height="35" viewBox="0 0 35 35" fill="none" xmlns="http://www.w3.org/2000/svg">
<path opacity="0.7" d="M28.25 7.5H23.9204L22.75 5.22583C22.7149 5.15768 22.6616 5.10053 22.5961 5.06069C22.5306 5.02084 22.4554 4.99984 22.3787 5H13.2879C13.2114 5 13.1363 5.02107 13.071 5.06091C13.0057 5.10074 12.9525 5.15781 12.9175 5.22583L11.7463 7.5H7.41667C7.30616 7.5 7.20018 7.5439 7.12204 7.62204C7.0439 7.70018 7 7.80616 7 7.91667V10C7 10.1105 7.0439 10.2165 7.12204 10.2946C7.20018 10.3728 7.30616 10.4167 7.41667 10.4167H28.25C28.3605 10.4167 28.4665 10.3728 28.5446 10.2946C28.6228 10.2165 28.6667 10.1105 28.6667 10V7.91667C28.6667 7.80616 28.6228 7.70018 28.5446 7.62204C28.4665 7.5439 28.3605 7.5 28.25 7.5Z" fill="#FFB359"/>
<path d="M9.49997 25.8333H26.1666C26.2714 25.8337 26.3725 25.7946 26.4497 25.7238C26.5269 25.653 26.5746 25.5557 26.5833 25.4512L27.4166 15.4512C27.4214 15.3937 27.4142 15.3358 27.3954 15.2812C27.3766 15.2265 27.3467 15.1764 27.3075 15.134C27.2684 15.0916 27.2208 15.0577 27.1678 15.0347C27.1149 15.0116 27.0577 14.9998 27 15H26.2146L26.5479 11.25H9.11872L9.45206 15H8.66664C8.60889 14.9998 8.55172 15.0116 8.49878 15.0347C8.44583 15.0577 8.39826 15.0916 8.35908 15.134C8.3199 15.1764 8.28997 15.2265 8.27118 15.2812C8.2524 15.3358 8.24518 15.3937 8.24997 15.4512L9.08331 25.4512C9.092 25.5557 9.13971 25.653 9.21693 25.7238C9.29415 25.7946 9.3952 25.8337 9.49997 25.8333ZM17.8333 17.5C18.4102 17.5 18.9741 17.6711 19.4537 17.9915C19.9334 18.312 20.3072 18.7676 20.528 19.3005C20.7487 19.8335 20.8065 20.4199 20.6939 20.9857C20.5814 21.5515 20.3036 22.0712 19.8957 22.4791C19.4878 22.887 18.9681 23.1647 18.4023 23.2773C17.8365 23.3898 17.2501 23.3321 16.7171 23.1113C16.1842 22.8906 15.7287 22.5167 15.4082 22.0371C15.0877 21.5574 14.9166 20.9935 14.9166 20.4167C14.9166 19.6431 15.2239 18.9013 15.7709 18.3543C16.3179 17.8073 17.0598 17.5 17.8333 17.5Z" fill="#FFB359"/>
<path d="M10.4893 26.6667L10.718 29.2405C10.7364 29.4479 10.8319 29.6409 10.9855 29.7815C11.1391 29.9221 11.3398 30.0001 11.548 30.0001H24.1188C24.3271 30.0001 24.5278 29.9221 24.6814 29.7815C24.835 29.6409 24.9304 29.4479 24.9488 29.2405L25.1776 26.6667H10.4893Z" fill="#FFB359"/>
</svg>
