<svg width="35" height="35" viewBox="0 0 35 35" fill="none" xmlns="http://www.w3.org/2000/svg">
<path opacity="0.7" d="M18.0915 5H16.5513V10.3907H18.0915V5Z" fill="#F96268"/>
<path opacity="0.7" d="M12.7013 7.3103H11.1611V12.701H12.7013V7.3103Z" fill="#F96268"/>
<path opacity="0.7" d="M23.4826 7.3103H21.9424V12.701H23.4826V7.3103Z" fill="#F96268"/>
<path d="M28.873 29.9999H5.7701C5.345 29.9999 5 29.6557 5 29.2298C5 28.804 5.345 28.4597 5.7701 28.4597H28.873C29.2981 28.4597 29.6431 28.804 29.6431 29.2298C29.6431 29.6557 29.2981 29.9999 28.873 29.9999Z" fill="#F96268"/>
<path d="M27.9859 26.9195C27.3829 22.7341 24.3718 19.3187 20.4019 18.1327V16.9083C20.4019 15.2094 19.0204 13.8279 17.3215 13.8279C15.6227 13.8279 14.2412 15.2094 14.2412 16.9083V18.1327C10.2713 19.3187 7.26021 22.7341 6.65723 26.9195H27.9859ZM15.7814 16.9083C15.7814 16.0589 16.4721 15.3681 17.3215 15.3681C18.171 15.3681 18.8617 16.0589 18.8617 16.9083V17.8016C18.3573 17.7284 17.846 17.6784 17.3215 17.6784C16.7971 17.6784 16.2858 17.7284 15.7814 17.8016V16.9083Z" fill="#F96268"/>
</svg>
